9/1,70
9/2,64
9/3,81
9/4,64
9/5,79
9/6,99
9/7,86
9/8,44
9/9,86
9/10,75
9/11,68
9/12,84
9/13,100
9/14,81
9/15,97
9/16,70
9/17,70
9/18,84
9/19,66
9/20,68
9/21,81
9/22,84
9/23,97
9/24,95
9/25,92
9/26,99
9/27,100
9/28,86
9/29,51
9/30,88